INFO: 2 (2 is best 5 is good )
params: [0.07423189,1.45733596,0.45642724]
Test on market data: 
time= 0.0833333; market= 0.997561; ours= 0.997474; diff= 8.65876e-05
time= 0.166667; market= 0.995122; ours= 0.994859; diff= 0.00026265
time=     0.25; market= 0.992683; ours= 0.992245; diff= 0.000437884
time= 0.333333; market= 0.990244; ours= 0.989694; diff= 0.000550056
time= 0.416667; market= 0.987805; ours= 0.987247; diff= 0.000557894
time=      0.5; market= 0.985366; ours=  0.98493; diff= 0.00043563
time= 0.583333; market= 0.982927; ours= 0.982758; diff= 0.00016883
time= 0.666667; market= 0.980488; ours= 0.980737; diff= 0.00024877
time=     0.75; market= 0.978049; ours= 0.978866; diff= 0.000817658
time= 0.833333; market=  0.97561; ours= 0.977144; diff= 0.00153433
time= 0.916667; market= 0.973171; ours= 0.975563; diff= 0.00239262
time=        1; market= 0.970732; ours= 0.974116; diff= 0.0033847
time=        2; market= 0.968293; ours= 0.964037; diff= 0.00425525
time=        3; market= 0.965854; ours= 0.960163; diff= 0.00569088
time=        4; market= 0.963415; ours= 0.957864; diff= 0.00555103
time=        5; market= 0.960976; ours=  0.95594; diff= 0.00503538
time=        6; market= 0.958537; ours= 0.954107; diff= 0.00442939
time=        7; market= 0.956098; ours= 0.952298; diff= 0.00379977
time=        8; market= 0.953659; ours= 0.950497; diff= 0.00316203
time=        9; market=  0.95122; ours=   0.9487; diff= 0.00251981
time=       10; market=  0.94878; ours= 0.946907; diff= 0.00187393
time=       11; market= 0.946341; ours= 0.945117; diff= 0.0012246
time=       12; market= 0.943902; ours= 0.943331; diff= 0.000571877
time=       13; market= 0.941463; ours= 0.941548; diff= 8.42252e-05
time=       14; market= 0.939024; ours= 0.939768; diff= 0.000743698
time=       15; market= 0.936585; ours= 0.937992; diff= 0.00140653
time=       16; market= 0.934146; ours= 0.936219; diff= 0.00207273
time=       17; market= 0.931707; ours=  0.93445; diff= 0.00274227
time=       18; market= 0.929268; ours= 0.932683; diff= 0.00341516
time=       19; market= 0.926829; ours= 0.930921; diff= 0.00409139
time=       20; market=  0.92439; ours= 0.929161; diff= 0.00477094
time=       21; market= 0.921951; ours= 0.927405; diff= 0.00545383
time=       22; market= 0.919512; ours= 0.925652; diff= 0.00614003
time=       23; market= 0.917073; ours= 0.923903; diff= 0.00682955
time=       24; market= 0.914634; ours= 0.922157; diff= 0.00752237
time=       25; market= 0.912195; ours= 0.920414; diff= 0.00821849
time=       26; market= 0.909756; ours= 0.918674; diff= 0.00891791
time=       27; market= 0.907317; ours= 0.916938; diff= 0.00962061
time=       28; market= 0.904878; ours= 0.915205; diff= 0.0103266
time=       29; market= 0.902439; ours= 0.913475; diff= 0.0110359
time=       30; market=      0.9; ours= 0.911748; diff= 0.0117484
